%YAML 1.1
%TAG !u! tag:unity3d.com,2011:
--- !u!1 &5859191001673581748
GameObject:
  m_ObjectHideFlags: 0
  m_CorrespondingSourceObject: {fileID: 0}
  m_PrefabInstance: {fileID: 0}
  m_PrefabAsset: {fileID: 0}
  serializedVersion: 6
  m_Component:
  - component: {fileID: 5859191001673581739}
  - component: {fileID: 5859191001673581738}
  - component: {fileID: 5859191001673581749}
  - component: {fileID: 5859191001673581736}
  m_Layer: 0
  m_Name: FreeLookThirdPersonCamera
  m_TagString: MainCamera
  m_Icon: {fileID: 0}
  m_NavMeshLayer: 0
  m_StaticEditorFlags: 0
  m_IsActive: 1
--- !u!4 &5859191001673581739
Transform:
  m_ObjectHideFlags: 0
  m_CorrespondingSourceObject: {fileID: 0}
  m_PrefabInstance: {fileID: 0}
  m_PrefabAsset: {fileID: 0}
  m_GameObject: {fileID: 5859191001673581748}
  m_LocalRotation: {x: 0.14524166, y: -0, z: -0, w: 0.9893962}
  m_LocalPosition: {x: 0, y: 2.75, z: -3.05}
  m_LocalScale: {x: 1, y: 1, z: 1}
  m_Children: []
  m_Father: {fileID: 0}
  m_RootOrder: 0
  m_LocalEulerAnglesHint: {x: 16.703001, y: 0, z: 0}
--- !u!20 &5859191001673581738
Camera:
  m_ObjectHideFlags: 0
  m_CorrespondingSourceObject: {fileID: 0}
  m_PrefabInstance: {fileID: 0}
  m_PrefabAsset: {fileID: 0}
  m_GameObject: {fileID: 5859191001673581748}
  m_Enabled: 1
  serializedVersion: 2
  m_ClearFlags: 1
  m_BackGroundColor: {r: 0.19215687, g: 0.3019608, b: 0.4745098, a: 0}
  m_projectionMatrixMode: 1
  m_SensorSize: {x: 36, y: 24}
  m_LensShift: {x: 0, y: 0}
  m_GateFitMode: 2
  m_FocalLength: 50
  m_NormalizedViewPortRect:
    serializedVersion: 2
    x: 0
    y: 0
    width: 1
    height: 1
  near clip plane: 0.3
  far clip plane: 1000
  field of view: 60
  orthographic: 0
  orthographic size: 5
  m_Depth: -1
  m_CullingMask:
    serializedVersion: 2
    m_Bits: 4294967295
  m_RenderingPath: -1
  m_TargetTexture: {fileID: 0}
  m_TargetDisplay: 0
  m_TargetEye: 3
  m_HDR: 1
  m_AllowMSAA: 1
  m_AllowDynamicResolution: 0
  m_ForceIntoRT: 0
  m_OcclusionCulling: 1
  m_StereoConvergence: 10
  m_StereoSeparation: 0.022
--- !u!81 &5859191001673581749
AudioListener:
  m_ObjectHideFlags: 0
  m_CorrespondingSourceObject: {fileID: 0}
  m_PrefabInstance: {fileID: 0}
  m_PrefabAsset: {fileID: 0}
  m_GameObject: {fileID: 5859191001673581748}
  m_Enabled: 1
--- !u!114 &5859191001673581736
MonoBehaviour:
  m_ObjectHideFlags: 0
  m_CorrespondingSourceObject: {fileID: 0}
  m_PrefabInstance: {fileID: 0}
  m_PrefabAsset: {fileID: 0}
  m_GameObject: {fileID: 5859191001673581748}
  m_Enabled: 1
  m_EditorHideFlags: 0
  m_Script: {fileID: 11500000, guid: f9857cb690494e54aa880d31c347afcb, type: 3}
  m_Name: 
  m_EditorClassIdentifier: 
  _cameraPivot: {fileID: 0}
  _pitchSpeed: 100
  _yawSpeed: 100
  _zoomSpeed: 250
  _zoomDistanceMultiplier: 0.3
  _resetToInitialStateDuration: 0.25
  _turnSmoothTime: 0.12
  _positionSmoothTime: 0.7
  _minimumYaw: -360
  _maximumYaw: 360
  _minimumPitch: -20
  _maximumPitch: 80
  _minimumDistance: 2
  _maximumDistance: 50
  _lockCursor: 1
