%YAML 1.1
%TAG !u! tag:unity3d.com,2011:
--- !u!114 &11400000
MonoBehaviour:
  m_ObjectHideFlags: 0
  m_CorrespondingSourceObject: {fileID: 0}
  m_PrefabInstance: {fileID: 0}
  m_PrefabAsset: {fileID: 0}
  m_GameObject: {fileID: 0}
  m_Enabled: 1
  m_EditorHideFlags: 0
  m_Script: {fileID: 11500000, guid: 1cef22ef7b773d9468e11abc2c65365e, type: 3}
  m_Name: Earth
  m_EditorClassIdentifier: 
  _beatenTypes:
  - {fileID: 11400000, guid: a27f212ce995a2842816b98bfa914d53, type: 2}
