%YAML 1.1
%TAG !u! tag:unity3d.com,2011:
--- !u!114 &11400000
MonoBehaviour:
  m_ObjectHideFlags: 0
  m_CorrespondingSourceObject: {fileID: 0}
  m_PrefabInstance: {fileID: 0}
  m_PrefabAsset: {fileID: 0}
  m_GameObject: {fileID: 0}
  m_Enabled: 1
  m_EditorHideFlags: 0
  m_Script: {fileID: 11500000, guid: f7fcd84db6e14c51b4f20c6fd991eec6, type: 3}
  m_Name: BossKey
  m_EditorClassIdentifier: 
  _itemName: Epic Boss key
  _description: An epic boss key you received after a huge fight!
  _itemSprite: {fileID: 21300000, guid: 0e123cfdc54a3ca4684816a34167a566, type: 3}
  _consumeUponUse: 0
  _isUnique: 1
  _itemMesh: {fileID: 10208, guid: 0000000000000000e000000000000000, type: 0}
  _itemType: {fileID: 11400000, guid: 0998831b20c50894e980fd315eec14f7, type: 2}
  useUseAudioEvent: {fileID: 11400000, guid: 56439f9c5cdaea94db5a37f11db2bf77, type: 2}
