%YAML 1.1
%TAG !u! tag:unity3d.com,2011:
--- !u!114 &11400000
MonoBehaviour:
  m_ObjectHideFlags: 0
  m_CorrespondingSourceObject: {fileID: 0}
  m_PrefabInstance: {fileID: 0}
  m_PrefabAsset: {fileID: 0}
  m_GameObject: {fileID: 0}
  m_Enabled: 1
  m_EditorHideFlags: 0
  m_Script: {fileID: 11500000, guid: 494a21e1ab044eab9e4e51142adaba5d, type: 3}
  m_Name: SmallHealthPotion
  m_EditorClassIdentifier: 
  _itemName: Small Health Potion
  _description: Restores a small amount of HP
  _itemSprite: {fileID: 21300000, guid: 5d9ba4e7d0964044ea54abe409d81dfd, type: 3}
  _consumeUponUse: 1
  _isUnique: 0
  _itemMesh: {fileID: 10207, guid: 0000000000000000e000000000000000, type: 0}
  _itemType: {fileID: 11400000, guid: 54d10352911fe2a44a1a4278ed71a578, type: 2}
  useUseAudioEvent: {fileID: 11400000, guid: e04376d4750687f4ca0e4a27f1b3e62a, type: 2}
  _restoredHealth: 5
